[
    {
        "displayName": "DKube DataScience python template",
        "description": "Starter application using the dkube-datascience-tf stack",
        "language": "python",
        "projectType": "appsodyExtension",
        "projectStyle": "Appsody",
        "location": "https://gitlab.com/rjGYbxSS/dkube-datascience-tf"
    }
]
